backports-abc==0.5
boto==2.49.0
boto3==1.9.57
botocore==1.12.57
bz2file==0.98
certifi==2018.11.29
chardet==3.0.4
docutils==0.14
futures==3.2.0
gensim==3.6.0
idna==2.7
jmespath==0.9.3
numpy==1.15.4
python-crfsuite==0.9.6
python-dateutil==2.7.5
pyvi==0.0.9.1
requests==2.20.1
s3transfer==0.1.13
scikit-learn==0.20.1
scipy==1.1.0
singledispatch==3.4.0.3
six==1.11.0
sklearn-crfsuite==0.3.6
smart-open==1.7.1
tabulate==0.8.2
tornado==5.0.2
tqdm==4.28.1
urllib3==1.24.1
